[
    {
        "id": 1,
        "title": "Regular",
        "message": "Hover to see the stages of software development",
        "alt": "Regular, relaxed, Johan",
        "uri": "IMG_1726.jpg"
    },
    {
        "id": 2,
        "title": "Happy",
        "message": "Happily compiling my code",
        "alt": "Normal, happy, Johan",
        "uri": "IMG_1728.jpg"
    },
    {
        "id": 3,
        "title": "Ecstatic",
        "message": "I am a GENIUS!!!!",
        "alt": "Well...let's face it. Sometimes I just go overboard!",
        "uri": "IMG_1731.jpg"
    },
    {
        "id": 4,
        "title": "Impressed",
        "message": "This design pattern is AWESOME!",
        "alt": "It always nice when Past-Johan made decisions that pleases Today-Johan",
        "uri": "IMG_1730.jpg"
    },
    {
        "id": 5,
        "title": "Scared",
        "message": "What...just...happened",
        "alt": "Sometimes you get unexpected results!",
        "uri": "IMG_1732.jpg"
    },
    {
        "id": 6,
        "title": "Relieved",
        "message": "Thank ${deity_of_choice} for version control",
        "alt": "Git is the greatest thing since sliced bread",
        "uri": "IMG_1733.jpg"
    },
    {
        "id": 7,
        "title": "Angry",
        "message": "I KNOW THAT UNDEFINED IS NOT AN OBJECT!",
        "alt": "I find your lack of feedback disturbing",
        "uri": "IMG_1734.jpg"
    }
]